 'Public server1 As String = "0280D1BA99AB"
    'Public server2 = "02ab23072001"
    'Public server3 = "020217081945"
    'Public server4 = "0239dfc62000"
    'Public server5 = "02df9abb3324"
    'Public server6 = "02EAEAEAEA20"
    ''------------------------------'
    'Public server7 = "020202020202"
    'Public server8 = "021A1A1A1A1A"
    'Public server9 = "029999933333"
    'Public server10 = "020202020203"
    'Public server11 = "02ADADADAD20"
    'Public server12 = "02BFAAAABF20"
    'Public server13 = "02EAEAEAEA20"
    'Public server14 = "021122334455"
    'Public server15 = "222222222222"
    'Public server16 = "020202020203"