    1.		434-731-867-380-910-095
    2.		646-449-453-583-143-599
    3.		816-178-156-537-438-337
    4.		139-600-067-736-964-677
    5.		441-972-149-387-159-597
    6.		406-909-760-479-182-402
    7.		531-088-005-000-489-304
    8.		779-428-369-726-749-810
    9.		651-597-349-497-596-115
   10.		487-424-819-503-570-804
   11.		154-828-687-388-328-455
   12.		011-133-877-557-829-731
   13.		660-244-324-013-942-627
   14.		525-181-661-438-604-356
   15.		498-494-291-400-934-847
   16.		391-588-880-998-133-283
   17.		122-045-711-420-027-833
   18.		775-275-989-961-814-920
   19.		956-686-014-534-406-041
   20.		519-679-601-037-448-587
   21.		227-325-170-513-419-858
   22.		661-408-824-659-321-640
   23.		069-492-433-893-351-109
   24.		915-826-379-968-235-660
   25.		261-216-866-084-734-507
   26.		082-878-505-655-796-331
   27.		188-016-207-985-217-452
   28.		776-591-843-893-086-790
   29.		871-741-420-326-883-361
   30.		937-328-090-946-160-511
   31.		030-804-247-627-996-000
<###-###-###-###-###-###>
